/home/johnny/proyectos/pachamama/luabot/software/embedded/nodemcu
date,command,observations
Wed Jul 11 09:16:35 -05 2018,esptool.py erase_flash,borrar memoria flash del esp8266
Wed Jul 11 09:19:12 -05 2018,esptool.py write_flash 0x00000 nodemcu-dev-24-modules-2018-07-11-14-08-31-float.bin,grabar el nodemcu (lua) en la memoria flash del esp8266
